%YAML 1.1
%TAG !u! tag:unity3d.com,2011:
--- !u!21 &2100000
Material:
  serializedVersion: 6
  m_ObjectHideFlags: 0
  m_PrefabParentObject: {fileID: 0}
  m_PrefabInternal: {fileID: 0}
  m_Name: Shader Forge_LavaShader1
  m_Shader: {fileID: 4800000, guid: 31fa272f03c95184da2c75bf5d9e0919, type: 3}
  m_ShaderKeywords: 
  m_LightmapFlags: 5
  m_CustomRenderQueue: -1
  stringTagMap: {}
  m_SavedProperties:
    serializedVersion: 2
    m_TexEnvs: []
    m_Floats: []
    m_Colors:
    - first:
        name: _Color_copy
      second: {r: 1, g: 0.5172414, b: 0, a: 1}
    - first:
        name: _Color_copy_copy
      second: {r: 1, g: 0.8896551, b: 0, a: 1}
    - first:
        name: _Colour_copy
      second: {r: 1, g: 0, b: 0, a: 1}
