%YAML 1.1
%TAG !u! tag:unity3d.com,2011:
--- !u!29 &1
OcclusionCullingSettings:
  m_ObjectHideFlags: 0
  serializedVersion: 2
  m_OcclusionBakeSettings:
    smallestOccluder: 5
    smallestHole: 0.25
    backfaceThreshold: 100
  m_SceneGUID: 00000000000000000000000000000000
  m_OcclusionCullingData: {fileID: 0}
--- !u!104 &2
RenderSettings:
  m_ObjectHideFlags: 0
  serializedVersion: 7
  m_Fog: 0
  m_FogColor: {r: 0.5, g: 0.5, b: 0.5, a: 1}
  m_FogMode: 3
  m_FogDensity: 0.01
  m_LinearFogStart: 0
  m_LinearFogEnd: 300
  m_AmbientSkyColor: {r: 0.2, g: 0.2, b: 0.2, a: 1}
  m_AmbientEquatorColor: {r: 0.2, g: 0.2, b: 0.2, a: 1}
  m_AmbientGroundColor: {r: 0.2, g: 0.2, b: 0.2, a: 1}
  m_AmbientIntensity: 1
  m_AmbientMode: 3
  m_SkyboxMaterial: {fileID: 0}
  m_HaloStrength: 0.5
  m_FlareStrength: 1
  m_FlareFadeSpeed: 3
  m_HaloTexture: {fileID: 0}
  m_SpotCookie: {fileID: 10001, guid: 0000000000000000e000000000000000, type: 0}
  m_DefaultReflectionMode: 0
  m_DefaultReflectionResolution: 128
  m_ReflectionBounces: 1
  m_ReflectionIntensity: 1
  m_CustomReflection: {fileID: 0}
  m_Sun: {fileID: 0}
  m_IndirectSpecularColor: {r: 0, g: 0, b: 0, a: 1}
--- !u!157 &4
LightmapSettings:
  m_ObjectHideFlags: 0
  serializedVersion: 7
  m_GIWorkflowMode: 1
  m_GISettings:
    serializedVersion: 2
    m_BounceScale: 1
    m_IndirectOutputScale: 1
    m_AlbedoBoost: 1
    m_TemporalCoherenceThreshold: 1
    m_EnvironmentLightingMode: 0
    m_EnableBakedLightmaps: 1
    m_EnableRealtimeLightmaps: 0
  m_LightmapEditorSettings:
    serializedVersion: 4
    m_Resolution: 1
    m_BakeResolution: 50
    m_TextureWidth: 1024
    m_TextureHeight: 1024
    m_AO: 1
    m_AOMaxDistance: 1
    m_CompAOExponent: 1
    m_CompAOExponentDirect: 0
    m_Padding: 2
    m_LightmapParameters: {fileID: 0}
    m_LightmapsBakeMode: 1
    m_TextureCompression: 0
    m_DirectLightInLightProbes: 1
    m_FinalGather: 0
    m_FinalGatherFiltering: 1
    m_FinalGatherRayCount: 256
    m_ReflectionCompression: 2
  m_LightingDataAsset: {fileID: 0}
  m_RuntimeCPUUsage: 25
--- !u!196 &5
NavMeshSettings:
  serializedVersion: 2
  m_ObjectHideFlags: 0
  m_BuildSettings:
    serializedVersion: 2
    agentTypeID: 0
    agentRadius: 0.5
    agentHeight: 2
    agentSlope: 45
    agentClimb: 0.4
    ledgeDropHeight: 0
    maxJumpAcrossDistance: 0
    minRegionArea: 2
    manualCellSize: 0
    cellSize: 0.16666666
    accuratePlacement: 0
  m_NavMeshData: {fileID: 0}
--- !u!1 &4186251
GameObject:
  m_ObjectHideFlags: 0
  m_PrefabParentObject: {fileID: 100000, guid: 9520b4773cd4be247b979318eae6c1da, type: 2}
  m_PrefabInternal: {fileID: 0}
  serializedVersion: 5
  m_Component:
  - component: {fileID: 682932605}
  - component: {fileID: 4186253}
  - component: {fileID: 4186252}
  m_Layer: 0
  m_Name: ParticleSource
  m_TagString: Interactive
  m_Icon: {fileID: 0}
  m_NavMeshLayer: 0
  m_StaticEditorFlags: 0
  m_IsActive: 1
--- !u!212 &4186252
SpriteRenderer:
  m_ObjectHideFlags: 0
  m_PrefabParentObject: {fileID: 21200000, guid: 9520b4773cd4be247b979318eae6c1da,
    type: 2}
  m_PrefabInternal: {fileID: 0}
  m_GameObject: {fileID: 4186251}
  m_Enabled: 1
  m_CastShadows: 0
  m_ReceiveShadows: 0
  m_MotionVectors: 1
  m_LightProbeUsage: 0
  m_ReflectionProbeUsage: 0
  m_Materials:
  - {fileID: 10754, guid: 0000000000000000f000000000000000, type: 0}
  m_StaticBatchInfo:
    firstSubMesh: 0
    subMeshCount: 0
  m_StaticBatchRoot: {fileID: 0}
  m_ProbeAnchor: {fileID: 0}
  m_LightProbeVolumeOverride: {fileID: 0}
  m_ScaleInLightmap: 1
  m_PreserveUVs: 0
  m_IgnoreNormalsForChartDetection: 0
  m_ImportantGI: 0
  m_SelectedEditorRenderState: 0
  m_MinimumChartSize: 4
  m_AutoUVMaxDistance: 0.5
  m_AutoUVMaxAngle: 89
  m_LightmapParameters: {fileID: 0}
  m_SortingLayerID: 0
  m_SortingOrder: 0
  m_Sprite: {fileID: 21300000, guid: fc15374f23c1e28498602ffb98b28a40, type: 3}
  m_Color: {r: 0.9865112, g: 1, b: 0.022058845, a: 0.6862745}
  m_FlipX: 0
  m_FlipY: 0
--- !u!114 &4186253
MonoBehaviour:
  m_ObjectHideFlags: 0
  m_PrefabParentObject: {fileID: 11400000, guid: 9520b4773cd4be247b979318eae6c1da,
    type: 2}
  m_PrefabInternal: {fileID: 0}
  m_GameObject: {fileID: 4186251}
  m_Enabled: 1
  m_EditorHideFlags: 0
  m_Script: {fileID: 11500000, guid: 6b2773a1f0d2be74c80c953150cf4c4a, type: 3}
  m_Name: 
  m_EditorClassIdentifier: 
  particle: {fileID: 1050994674888434, guid: e4eb98041f1b21d4f8f80428cfc70d2f, type: 2}
  particleLifetime: 3
  particleForce: {x: 0, y: 0, z: 0}
  particlesState: 0
--- !u!1 &198816837
GameObject:
  m_ObjectHideFlags: 0
  m_PrefabParentObject: {fileID: 0}
  m_PrefabInternal: {fileID: 0}
  serializedVersion: 5
  m_Component:
  - component: {fileID: 198816838}
  m_Layer: 0
  m_Name: ExampleScene
  m_TagString: Untagged
  m_Icon: {fileID: 0}
  m_NavMeshLayer: 0
  m_StaticEditorFlags: 0
  m_IsActive: 1
--- !u!4 &198816838
Transform:
  m_ObjectHideFlags: 0
  m_PrefabParentObject: {fileID: 0}
  m_PrefabInternal: {fileID: 0}
  m_GameObject: {fileID: 198816837}
  m_LocalRotation: {x: 0, y: 0, z: 0, w: 1}
  m_LocalPosition: {x: 0, y: 0, z: 0}
  m_LocalScale: {x: 1, y: 1, z: 1}
  m_Children:
  - {fileID: 1390072292}
  - {fileID: 682932605}
  m_Father: {fileID: 0}
  m_RootOrder: 2
  m_LocalEulerAnglesHint: {x: 0, y: 0, z: 0}
--- !u!1 &259916154
GameObject:
  m_ObjectHideFlags: 0
  m_PrefabParentObject: {fileID: 100034, guid: 3ae4cf39f6211ff418103507ab089ec0, type: 2}
  m_PrefabInternal: {fileID: 0}
  serializedVersion: 5
  m_Component:
  - component: {fileID: 259916155}
  - component: {fileID: 259916156}
  m_Layer: 0
  m_Name: GameCamera
  m_TagString: Untagged
  m_Icon: {fileID: 0}
  m_NavMeshLayer: 0
  m_StaticEditorFlags: 0
  m_IsActive: 1
--- !u!4 &259916155
Transform:
  m_ObjectHideFlags: 0
  m_PrefabParentObject: {fileID: 400034, guid: 3ae4cf39f6211ff418103507ab089ec0, type: 2}
  m_PrefabInternal: {fileID: 0}
  m_GameObject: {fileID: 259916154}
  m_LocalRotation: {x: 0, y: 0, z: 0, w: 1}
  m_LocalPosition: {x: 0, y: 0, z: -10}
  m_LocalScale: {x: 1, y: 1, z: 1}
  m_Children: []
  m_Father: {fileID: 1976591043}
  m_RootOrder: 1
  m_LocalEulerAnglesHint: {x: 0, y: 0, z: 0}
--- !u!20 &259916156
Camera:
  m_ObjectHideFlags: 0
  m_PrefabParentObject: {fileID: 2000004, guid: 3ae4cf39f6211ff418103507ab089ec0,
    type: 2}
  m_PrefabInternal: {fileID: 0}
  m_GameObject: {fileID: 259916154}
  m_Enabled: 1
  serializedVersion: 2
  m_ClearFlags: 2
  m_BackGroundColor: {r: 1, g: 1, b: 1, a: 0}
  m_NormalizedViewPortRect:
    serializedVersion: 2
    x: 0
    y: 0
    width: 1
    height: 1
  near clip plane: 0.3
  far clip plane: 20
  field of view: 60
  orthographic: 1
  orthographic size: 3.5
  m_Depth: -1
  m_CullingMask:
    serializedVersion: 2
    m_Bits: 4294967039
  m_RenderingPath: -1
  m_TargetTexture: {fileID: 8400000, guid: eb302debdf725de48a069d0a0635c707, type: 2}
  m_TargetDisplay: 0
  m_TargetEye: 3
  m_HDR: 0
  m_OcclusionCulling: 1
  m_StereoConvergence: 10
  m_StereoSeparation: 0.022
  m_StereoMirrorMode: 0
--- !u!1 &626373182
GameObject:
  m_ObjectHideFlags: 0
  m_PrefabParentObject: {fileID: 0}
  m_PrefabInternal: {fileID: 0}
  serializedVersion: 5
  m_Component:
  - component: {fileID: 626373184}
  - component: {fileID: 626373183}
  m_Layer: 0
  m_Name: Background
  m_TagString: Untagged
  m_Icon: {fileID: 0}
  m_NavMeshLayer: 0
  m_StaticEditorFlags: 0
  m_IsActive: 1
--- !u!212 &626373183
SpriteRenderer:
  m_ObjectHideFlags: 0
  m_PrefabParentObject: {fileID: 0}
  m_PrefabInternal: {fileID: 0}
  m_GameObject: {fileID: 626373182}
  m_Enabled: 1
  m_CastShadows: 0
  m_ReceiveShadows: 0
  m_MotionVectors: 1
  m_LightProbeUsage: 0
  m_ReflectionProbeUsage: 0
  m_Materials:
  - {fileID: 10754, guid: 0000000000000000f000000000000000, type: 0}
  m_StaticBatchInfo:
    firstSubMesh: 0
    subMeshCount: 0
  m_StaticBatchRoot: {fileID: 0}
  m_ProbeAnchor: {fileID: 0}
  m_LightProbeVolumeOverride: {fileID: 0}
  m_ScaleInLightmap: 1
  m_PreserveUVs: 0
  m_IgnoreNormalsForChartDetection: 0
  m_ImportantGI: 0
  m_SelectedEditorRenderState: 0
  m_MinimumChartSize: 4
  m_AutoUVMaxDistance: 0.5
  m_AutoUVMaxAngle: 89
  m_LightmapParameters: {fileID: 0}
  m_SortingLayerID: 0
  m_SortingOrder: -3
  m_Sprite: {fileID: 21300000, guid: d7eef2ab5b8848a43bb62353673e0f31, type: 3}
  m_Color: {r: 1, g: 1, b: 1, a: 1}
  m_FlipX: 0
  m_FlipY: 0
--- !u!4 &626373184
Transform:
  m_ObjectHideFlags: 0
  m_PrefabParentObject: {fileID: 0}
  m_PrefabInternal: {fileID: 0}
  m_GameObject: {fileID: 626373182}
  m_LocalRotation: {x: 0, y: 0, z: 0, w: 1}
  m_LocalPosition: {x: 0, y: 0, z: 0}
  m_LocalScale: {x: 1, y: 1, z: 1}
  m_Children: []
  m_Father: {fileID: 1604858589}
  m_RootOrder: 1
  m_LocalEulerAnglesHint: {x: 0, y: 0, z: 0}
--- !u!1 &678869874
GameObject:
  m_ObjectHideFlags: 0
  m_PrefabParentObject: {fileID: 100020, guid: 3ae4cf39f6211ff418103507ab089ec0, type: 2}
  m_PrefabInternal: {fileID: 0}
  serializedVersion: 5
  m_Component:
  - component: {fileID: 678869875}
  - component: {fileID: 678869876}
  m_Layer: 0
  m_Name: LiquidCamera
  m_TagString: Untagged
  m_Icon: {fileID: 0}
  m_NavMeshLayer: 0
  m_StaticEditorFlags: 0
  m_IsActive: 1
--- !u!4 &678869875
Transform:
  m_ObjectHideFlags: 0
  m_PrefabParentObject: {fileID: 400020, guid: 3ae4cf39f6211ff418103507ab089ec0, type: 2}
  m_PrefabInternal: {fileID: 0}
  m_GameObject: {fileID: 678869874}
  m_LocalRotation: {x: 0, y: 0, z: 0, w: 1}
  m_LocalPosition: {x: 0, y: 0, z: -10}
  m_LocalScale: {x: 1, y: 1, z: 1}
  m_Children: []
  m_Father: {fileID: 1976591043}
  m_RootOrder: 2
  m_LocalEulerAnglesHint: {x: 0, y: 0, z: 0}
--- !u!20 &678869876
Camera:
  m_ObjectHideFlags: 0
  m_PrefabParentObject: {fileID: 2000002, guid: 3ae4cf39f6211ff418103507ab089ec0,
    type: 2}
  m_PrefabInternal: {fileID: 0}
  m_GameObject: {fileID: 678869874}
  m_Enabled: 1
  serializedVersion: 2
  m_ClearFlags: 2
  m_BackGroundColor: {r: 0, g: 0, b: 0, a: 0}
  m_NormalizedViewPortRect:
    serializedVersion: 2
    x: 0
    y: 0
    width: 1
    height: 1
  near clip plane: 0.3
  far clip plane: 20
  field of view: 60
  orthographic: 1
  orthographic size: 3.5
  m_Depth: -1
  m_CullingMask:
    serializedVersion: 2
    m_Bits: 256
  m_RenderingPath: -1
  m_TargetTexture: {fileID: 8400000, guid: bf167d543717b9e48976cfeda4181ac8, type: 2}
  m_TargetDisplay: 0
  m_TargetEye: 3
  m_HDR: 0
  m_OcclusionCulling: 1
  m_StereoConvergence: 10
  m_StereoSeparation: 0.022
  m_StereoMirrorMode: 0
--- !u!4 &682932605
Transform:
  m_ObjectHideFlags: 0
  m_PrefabParentObject: {fileID: 400000, guid: 9520b4773cd4be247b979318eae6c1da, type: 2}
  m_PrefabInternal: {fileID: 0}
  m_GameObject: {fileID: 4186251}
  m_LocalRotation: {x: 0, y: 0, z: 0, w: 1}
  m_LocalPosition: {x: 5.14, y: 4.23, z: 0}
  m_LocalScale: {x: 1, y: 1, z: 0.2}
  m_Children: []
  m_Father: {fileID: 198816838}
  m_RootOrder: 1
  m_LocalEulerAnglesHint: {x: 0, y: 0, z: 0}
--- !u!1 &1199779268
GameObject:
  m_ObjectHideFlags: 0
  m_PrefabParentObject: {fileID: 100018, guid: 3ae4cf39f6211ff418103507ab089ec0, type: 2}
  m_PrefabInternal: {fileID: 0}
  serializedVersion: 5
  m_Component:
  - component: {fileID: 1199779269}
  - component: {fileID: 1199779272}
  - component: {fileID: 1199779271}
  - component: {fileID: 1199779270}
  m_Layer: 0
  m_Name: MetaballPlane
  m_TagString: Untagged
  m_Icon: {fileID: 0}
  m_NavMeshLayer: 0
  m_StaticEditorFlags: 0
  m_IsActive: 1
--- !u!4 &1199779269
Transform:
  m_ObjectHideFlags: 0
  m_PrefabParentObject: {fileID: 400018, guid: 3ae4cf39f6211ff418103507ab089ec0, type: 2}
  m_PrefabInternal: {fileID: 0}
  m_GameObject: {fileID: 1199779268}
  m_LocalRotation: {x: 0, y: 0, z: 0, w: 1}
  m_LocalPosition: {x: 0, y: 0, z: 13}
  m_LocalScale: {x: 20, y: 10, z: 1}
  m_Children: []
  m_Father: {fileID: 1315510624}
  m_RootOrder: 0
  m_LocalEulerAnglesHint: {x: 0, y: 0, z: 0}
--- !u!23 &1199779270
MeshRenderer:
  m_ObjectHideFlags: 0
  m_PrefabParentObject: {fileID: 2300002, guid: 3ae4cf39f6211ff418103507ab089ec0,
    type: 2}
  m_PrefabInternal: {fileID: 0}
  m_GameObject: {fileID: 1199779268}
  m_Enabled: 1
  m_CastShadows: 1
  m_ReceiveShadows: 1
  m_MotionVectors: 1
  m_LightProbeUsage: 0
  m_ReflectionProbeUsage: 1
  m_Materials:
  - {fileID: 2100000, guid: b68673d701683c14293159e0c9edd288, type: 2}
  m_StaticBatchInfo:
    firstSubMesh: 0
    subMeshCount: 0
  m_StaticBatchRoot: {fileID: 0}
  m_ProbeAnchor: {fileID: 0}
  m_LightProbeVolumeOverride: {fileID: 0}
  m_ScaleInLightmap: 1
  m_PreserveUVs: 0
  m_IgnoreNormalsForChartDetection: 0
  m_ImportantGI: 0
  m_SelectedEditorRenderState: 3
  m_MinimumChartSize: 4
  m_AutoUVMaxDistance: 0.5
  m_AutoUVMaxAngle: 89
  m_LightmapParameters: {fileID: 0}
  m_SortingLayerID: 0
  m_SortingOrder: 0
--- !u!64 &1199779271
MeshCollider:
  m_ObjectHideFlags: 0
  m_PrefabParentObject: {fileID: 6400000, guid: 3ae4cf39f6211ff418103507ab089ec0,
    type: 2}
  m_PrefabInternal: {fileID: 0}
  m_GameObject: {fileID: 1199779268}
  m_Material: {fileID: 0}
  m_IsTrigger: 0
  m_Enabled: 1
  serializedVersion: 2
  m_Convex: 0
  m_InflateMesh: 0
  m_SkinWidth: 0.01
  m_Mesh: {fileID: 10210, guid: 0000000000000000e000000000000000, type: 0}
--- !u!33 &1199779272
MeshFilter:
  m_ObjectHideFlags: 0
  m_PrefabParentObject: {fileID: 3300002, guid: 3ae4cf39f6211ff418103507ab089ec0,
    type: 2}
  m_PrefabInternal: {fileID: 0}
  m_GameObject: {fileID: 1199779268}
  m_Mesh: {fileID: 10210, guid: 0000000000000000e000000000000000, type: 0}
--- !u!1 &1315510623
GameObject:
  m_ObjectHideFlags: 0
  m_PrefabParentObject: {fileID: 100016, guid: 3ae4cf39f6211ff418103507ab089ec0, type: 2}
  m_PrefabInternal: {fileID: 0}
  serializedVersion: 5
  m_Component:
  - component: {fileID: 1315510624}
  - component: {fileID: 1315510628}
  - component: {fileID: 1315510627}
  - component: {fileID: 1315510626}
  - component: {fileID: 1315510625}
  m_Layer: 0
  m_Name: FinalCamera
  m_TagString: MainCamera
  m_Icon: {fileID: 0}
  m_NavMeshLayer: 0
  m_StaticEditorFlags: 0
  m_IsActive: 1
--- !u!4 &1315510624
Transform:
  m_ObjectHideFlags: 0
  m_PrefabParentObject: {fileID: 400016, guid: 3ae4cf39f6211ff418103507ab089ec0, type: 2}
  m_PrefabInternal: {fileID: 0}
  m_GameObject: {fileID: 1315510623}
  m_LocalRotation: {x: 0, y: 0, z: 0, w: 1}
  m_LocalPosition: {x: 49, y: 0, z: -10}
  m_LocalScale: {x: 1, y: 1, z: 1}
  m_Children:
  - {fileID: 1199779269}
  - {fileID: 1387021772}
  m_Father: {fileID: 1976591043}
  m_RootOrder: 0
  m_LocalEulerAnglesHint: {x: 0, y: 0, z: 0}
--- !u!81 &1315510625
AudioListener:
  m_ObjectHideFlags: 0
  m_PrefabParentObject: {fileID: 8100000, guid: 3ae4cf39f6211ff418103507ab089ec0,
    type: 2}
  m_PrefabInternal: {fileID: 0}
  m_GameObject: {fileID: 1315510623}
  m_Enabled: 1
--- !u!124 &1315510626
Behaviour:
  m_ObjectHideFlags: 0
  m_PrefabParentObject: {fileID: 12400000, guid: 3ae4cf39f6211ff418103507ab089ec0,
    type: 2}
  m_PrefabInternal: {fileID: 0}
  m_GameObject: {fileID: 1315510623}
  m_Enabled: 1
--- !u!92 &1315510627
Behaviour:
  m_ObjectHideFlags: 0
  m_PrefabParentObject: {fileID: 9200000, guid: 3ae4cf39f6211ff418103507ab089ec0,
    type: 2}
  m_PrefabInternal: {fileID: 0}
  m_GameObject: {fileID: 1315510623}
  m_Enabled: 1
--- !u!20 &1315510628
Camera:
  m_ObjectHideFlags: 0
  m_PrefabParentObject: {fileID: 2000000, guid: 3ae4cf39f6211ff418103507ab089ec0,
    type: 2}
  m_PrefabInternal: {fileID: 0}
  m_GameObject: {fileID: 1315510623}
  m_Enabled: 1
  serializedVersion: 2
  m_ClearFlags: 1
  m_BackGroundColor: {r: 0.40392157, g: 0.29411766, b: 0.19215687, a: 0.019607844}
  m_NormalizedViewPortRect:
    serializedVersion: 2
    x: 0
    y: 0
    width: 1
    height: 1
  near clip plane: 0.3
  far clip plane: 20
  field of view: 60
  orthographic: 1
  orthographic size: 5
  m_Depth: -1
  m_CullingMask:
    serializedVersion: 2
    m_Bits: 4294967295
  m_RenderingPath: -1
  m_TargetTexture: {fileID: 0}
  m_TargetDisplay: 0
  m_TargetEye: 3
  m_HDR: 0
  m_OcclusionCulling: 1
  m_StereoConvergence: 10
  m_StereoSeparation: 0.022
  m_StereoMirrorMode: 0
--- !u!1 &1319854645
GameObject:
  m_ObjectHideFlags: 0
  m_PrefabParentObject: {fileID: 100032, guid: 3ae4cf39f6211ff418103507ab089ec0, type: 2}
  m_PrefabInternal: {fileID: 0}
  serializedVersion: 5
  m_Component:
  - component: {fileID: 1319854646}
  - component: {fileID: 1319854648}
  - component: {fileID: 1319854647}
  m_Layer: 0
  m_Name: Geometry
  m_TagString: Untagged
  m_Icon: {fileID: 0}
  m_NavMeshLayer: 0
  m_StaticEditorFlags: 0
  m_IsActive: 1
--- !u!4 &1319854646
Transform:
  m_ObjectHideFlags: 0
  m_PrefabParentObject: {fileID: 400032, guid: 3ae4cf39f6211ff418103507ab089ec0, type: 2}
  m_PrefabInternal: {fileID: 0}
  m_GameObject: {fileID: 1319854645}
  m_LocalRotation: {x: 0, y: 0, z: 0, w: 1}
  m_LocalPosition: {x: 0, y: 0, z: 0}
  m_LocalScale: {x: 1, y: 1, z: 1}
  m_Children: []
  m_Father: {fileID: 1604858589}
  m_RootOrder: 0
  m_LocalEulerAnglesHint: {x: 0, y: 0, z: 0}
--- !u!60 &1319854647
PolygonCollider2D:
  m_ObjectHideFlags: 0
  m_PrefabParentObject: {fileID: 6000000, guid: 3ae4cf39f6211ff418103507ab089ec0,
    type: 2}
  m_PrefabInternal: {fileID: 0}
  m_GameObject: {fileID: 1319854645}
  m_Enabled: 1
  m_Density: 1
  m_Material: {fileID: 0}
  m_IsTrigger: 0
  m_UsedByEffector: 0
  m_Offset: {x: 0, y: 0}
  m_Points:
    m_Paths:
    - - {x: -4.2999997, y: -2.8799999}
      - {x: -4.0499997, y: -2.77}
      - {x: -3.9199998, y: -2.71}
      - {x: -3.73, y: -2.62}
      - {x: -3.56, y: -2.6299999}
      - {x: -3.4199998, y: -2.6}
      - {x: -3.05, y: -2.58}
      - {x: -2.9199998, y: -2.54}
      - {x: -2.72, y: -2.44}
      - {x: -2.5, y: -2.45}
      - {x: -2.4299998, y: -2.4299998}
      - {x: -2.31, y: -2.3899999}
      - {x: -2.21, y: -2.34}
      - {x: -1.89, y: -2.34}
      - {x: -1.7099999, y: -2.32}
      - {x: -1.7099999, y: -2.3}
      - {x: -1.12, y: -2.3}
      - {x: -0.75, y: -2.29}
      - {x: -0.65999997, y: -2.28}
      - {x: -0.45, y: -2.27}
      - {x: -0.35, y: -2.26}
      - {x: -0.099999994, y: -2.1599998}
      - {x: 0.089999996, y: -2.03}
      - {x: 0.19999999, y: -1.91}
      - {x: 0.26999998, y: -1.8299999}
      - {x: 0.32999998, y: -1.6999999}
      - {x: 0.32999998, y: -1.36}
      - {x: 0.32, y: -1.17}
      - {x: 0.29, y: -0.98999995}
      - {x: 0.25, y: -0.87}
      - {x: 0.089999996, y: -0.61}
      - {x: 0.06, y: -0.58}
      - {x: -0.03, y: -0.47}
      - {x: -0.13, y: -0.32999998}
      - {x: -0.25, y: -0.22}
      - {x: -0.37, y: -0.12}
      - {x: -0.51, y: -0.03}
      - {x: -0.72999996, y: 0.12}
      - {x: -0.93, y: 0.19}
      - {x: -1.15, y: 0.25}
      - {x: -1.4, y: 0.29}
      - {x: -1.42, y: 0.22999999}
      - {x: -1.5, y: 0.21}
      - {x: -1.55, y: 0.19}
      - {x: -1.65, y: 0.089999996}
      - {x: -1.79, y: -0.39}
      - {x: -1.88, y: -0.53999996}
      - {x: -2.02, y: -0.68}
      - {x: -2.22, y: -0.87}
      - {x: -2.36, y: -0.91999996}
      - {x: -2.6499999, y: -0.96999997}
      - {x: -2.69, y: -0.97999996}
      - {x: -2.78, y: -0.98999995}
      - {x: -3.23, y: -0.98999995}
      - {x: -3.34, y: -0.96}
      - {x: -3.52, y: -0.9}
      - {x: -4.1, y: -0.65}
      - {x: -4.25, y: -0.55}
      - {x: -4.2799997, y: -0.45999998}
      - {x: -4.3399997, y: -0.42}
      - {x: -4.65, y: -0.22}
      - {x: -4.7599998, y: -0.11}
      - {x: -4.77, y: 0.02}
      - {x: -5.0299997, y: 0.37}
      - {x: -5.1, y: 0.45999998}
      - {x: -5.17, y: 0.61}
      - {x: -5.21, y: 0.66999996}
      - {x: -5.3199997, y: 0.85999995}
      - {x: -5.39, y: 1.02}
      - {x: -5.46, y: 1.15}
      - {x: -5.54, y: 1.4599999}
      - {x: -5.5499997, y: 1.78}
      - {x: -5.5299997, y: 2.05}
      - {x: -5.5299997, y: 2.33}
      - {x: -5.54, y: 2.5}
      - {x: -5.5299997, y: 2.9399998}
      - {x: -5.5099998, y: 3.1299999}
      - {x: -5.45, y: 3.49}
      - {x: -5.45, y: 3.57}
      - {x: -5.46, y: 3.6}
      - {x: -6.3999996, y: 3.6}
      - {x: -6.3999996, y: -3.6}
      - {x: -5.58, y: -3.6}
      - {x: -5.2999997, y: -3.3999999}
      - {x: -5.16, y: -3.31}
      - {x: -4.68, y: -3.04}
    - - {x: 1.29, y: -3.35}
      - {x: 1.03, y: -3.28}
      - {x: 0.84999996, y: -3.22}
      - {x: 0.59, y: -3.1499999}
      - {x: 0.34, y: -3.1599998}
      - {x: -0.01, y: -3.1899998}
      - {x: -0.78999996, y: -3.21}
      - {x: -1.13, y: -3.1499999}
      - {x: -1.36, y: -3.07}
      - {x: -1.9399999, y: -3.07}
      - {x: -2.04, y: -3.1599998}
      - {x: -2.33, y: -3.23}
      - {x: -2.61, y: -3.26}
      - {x: -2.83, y: -3.3}
      - {x: -3.1699998, y: -3.34}
      - {x: -3.3, y: -3.36}
      - {x: -3.51, y: -3.4099998}
      - {x: -3.6699998, y: -3.51}
      - {x: -3.7099998, y: -3.56}
      - {x: -3.7099998, y: -3.6}
      - {x: 1.64, y: -3.6}
      - {x: 1.64, y: -3.58}
      - {x: 1.5699999, y: -3.51}
    - - {x: 5.74, y: 3.6}
      - {x: 5.7, y: 3.55}
      - {x: 5.64, y: 3.27}
      - {x: 5.6299996, y: 2.9399998}
      - {x: 5.6099997, y: 2.76}
      - {x: 5.62, y: 2.6499999}
      - {x: 5.54, y: 2.5}
      - {x: 5.47, y: 2.34}
      - {x: 5.41, y: 2.1599998}
      - {x: 5.35, y: 2}
      - {x: 5.27, y: 1.91}
      - {x: 5.18, y: 1.75}
      - {x: 4.81, y: 1.36}
      - {x: 4.79, y: 1.37}
      - {x: 4.61, y: 1.1899999}
      - {x: 4.4, y: 1.09}
      - {x: 4.22, y: 1}
      - {x: 3.78, y: 0.88}
      - {x: 3.6799998, y: 0.84}
      - {x: 3.55, y: 0.83}
      - {x: 3.1299999, y: 0.71999997}
      - {x: 2.98, y: 0.65999997}
      - {x: 2.72, y: 0.56}
      - {x: 2.6299999, y: 0.55}
      - {x: 2.37, y: 0.42}
      - {x: 2.06, y: 0.12}
      - {x: 1.9799999, y: -0.01}
      - {x: 1.87, y: -0.12}
      - {x: 1.8199999, y: -0.21}
      - {x: 1.73, y: -0.38}
      - {x: 1.6899999, y: -0.57}
      - {x: 1.63, y: -0.75}
      - {x: 1.5899999, y: -0.89}
      - {x: 1.49, y: -1}
      - {x: 1.4399999, y: -1.12}
      - {x: 1.4399999, y: -1.27}
      - {x: 1.39, y: -1.51}
      - {x: 1.36, y: -1.67}
      - {x: 1.35, y: -1.79}
      - {x: 1.39, y: -1.9}
      - {x: 1.4499999, y: -2.03}
      - {x: 1.64, y: -2.3}
      - {x: 1.6999999, y: -2.36}
      - {x: 1.9499999, y: -2.54}
      - {x: 2.05, y: -2.59}
      - {x: 2.24, y: -2.6799998}
      - {x: 2.3899999, y: -2.77}
      - {x: 2.6499999, y: -2.9299998}
      - {x: 2.83, y: -3.1699998}
      - {x: 2.9099998, y: -3.25}
      - {x: 2.96, y: -3.3799999}
      - {x: 3.04, y: -3.51}
      - {x: 3.06, y: -3.6}
      - {x: 6.3999996, y: -3.6}
      - {x: 6.3999996, y: 3.6}
    - - {x: -0.25, y: 1.49}
      - {x: 0.22999999, y: 1.5999999}
      - {x: 0.7, y: 1.63}
      - {x: 0.94, y: 1.65}
      - {x: 1.48, y: 1.65}
      - {x: 1.8, y: 1.67}
      - {x: 1.9499999, y: 1.68}
      - {x: 2.2, y: 1.74}
      - {x: 2.34, y: 1.81}
      - {x: 2.37, y: 1.8299999}
      - {x: 2.49, y: 1.88}
      - {x: 2.69, y: 1.9599999}
      - {x: 2.83, y: 2.01}
      - {x: 3.09, y: 2.1399999}
      - {x: 3.25, y: 2.25}
      - {x: 3.35, y: 2.32}
      - {x: 3.49, y: 2.4299998}
      - {x: 3.57, y: 2.51}
      - {x: 3.73, y: 2.73}
      - {x: 3.82, y: 2.9099998}
      - {x: 3.9299998, y: 3.1899998}
      - {x: 3.99, y: 3.35}
      - {x: 4.0299997, y: 3.48}
      - {x: 4.0499997, y: 3.6}
      - {x: -4.04, y: 3.6}
      - {x: -4.04, y: 2.4099998}
      - {x: -4.0499997, y: 2.3999999}
      - {x: -4.0899997, y: 2.19}
      - {x: -4.0899997, y: 1.99}
      - {x: -4, y: 1.91}
      - {x: -3.87, y: 1.8499999}
      - {x: -3.72, y: 1.8}
      - {x: -3.22, y: 1.66}
      - {x: -2.9099998, y: 1.5799999}
      - {x: -2.58, y: 1.52}
      - {x: -2.27, y: 1.48}
      - {x: -2.1, y: 1.4599999}
      - {x: -1.79, y: 1.4399999}
      - {x: -1.76, y: 1.4399999}
      - {x: -1.56, y: 1.43}
      - {x: -0.61, y: 1.43}
--- !u!212 &1319854648
SpriteRenderer:
  m_ObjectHideFlags: 0
  m_PrefabParentObject: {fileID: 21200006, guid: 3ae4cf39f6211ff418103507ab089ec0,
    type: 2}
  m_PrefabInternal: {fileID: 0}
  m_GameObject: {fileID: 1319854645}
  m_Enabled: 0
  m_CastShadows: 0
  m_ReceiveShadows: 0
  m_MotionVectors: 1
  m_LightProbeUsage: 0
  m_ReflectionProbeUsage: 0
  m_Materials:
  - {fileID: 10754, guid: 0000000000000000f000000000000000, type: 0}
  m_StaticBatchInfo:
    firstSubMesh: 0
    subMeshCount: 0
  m_StaticBatchRoot: {fileID: 0}
  m_ProbeAnchor: {fileID: 0}
  m_LightProbeVolumeOverride: {fileID: 0}
  m_ScaleInLightmap: 1
  m_PreserveUVs: 0
  m_IgnoreNormalsForChartDetection: 0
  m_ImportantGI: 0
  m_SelectedEditorRenderState: 0
  m_MinimumChartSize: 4
  m_AutoUVMaxDistance: 0.5
  m_AutoUVMaxAngle: 89
  m_LightmapParameters: {fileID: 0}
  m_SortingLayerID: 0
  m_SortingOrder: 0
  m_Sprite: {fileID: 21300000, guid: e7da225f80e868542836a1e5dc21dc53, type: 3}
  m_Color: {r: 0.4705882, g: 0.29838917, b: 0.1868512, a: 1}
  m_FlipX: 0
  m_FlipY: 0
--- !u!1 &1387021771
GameObject:
  m_ObjectHideFlags: 0
  m_PrefabParentObject: {fileID: 100024, guid: 3ae4cf39f6211ff418103507ab089ec0, type: 2}
  m_PrefabInternal: {fileID: 0}
  serializedVersion: 5
  m_Component:
  - component: {fileID: 1387021772}
  - component: {fileID: 1387021775}
  - component: {fileID: 1387021774}
  - component: {fileID: 1387021773}
  m_Layer: 0
  m_Name: RegularPlane
  m_TagString: Untagged
  m_Icon: {fileID: 0}
  m_NavMeshLayer: 0
  m_StaticEditorFlags: 0
  m_IsActive: 1
--- !u!4 &1387021772
Transform:
  m_ObjectHideFlags: 0
  m_PrefabParentObject: {fileID: 400024, guid: 3ae4cf39f6211ff418103507ab089ec0, type: 2}
  m_PrefabInternal: {fileID: 0}
  m_GameObject: {fileID: 1387021771}
  m_LocalRotation: {x: 0, y: 0, z: 0, w: 1}
  m_LocalPosition: {x: 0, y: 0, z: 15}
  m_LocalScale: {x: 20, y: 10, z: 1}
  m_Children: []
  m_Father: {fileID: 1315510624}
  m_RootOrder: 1
  m_LocalEulerAnglesHint: {x: 0, y: 0, z: 0}
--- !u!23 &1387021773
MeshRenderer:
  m_ObjectHideFlags: 0
  m_PrefabParentObject: {fileID: 2300006, guid: 3ae4cf39f6211ff418103507ab089ec0,
    type: 2}
  m_PrefabInternal: {fileID: 0}
  m_GameObject: {fileID: 1387021771}
  m_Enabled: 1
  m_CastShadows: 1
  m_ReceiveShadows: 1
  m_MotionVectors: 1
  m_LightProbeUsage: 0
  m_ReflectionProbeUsage: 1
  m_Materials:
  - {fileID: 2100000, guid: 2675656143ca1394e8724a0e731a0607, type: 2}
  m_StaticBatchInfo:
    firstSubMesh: 0
    subMeshCount: 0
  m_StaticBatchRoot: {fileID: 0}
  m_ProbeAnchor: {fileID: 0}
  m_LightProbeVolumeOverride: {fileID: 0}
  m_ScaleInLightmap: 1
  m_PreserveUVs: 0
  m_IgnoreNormalsForChartDetection: 0
  m_ImportantGI: 0
  m_SelectedEditorRenderState: 3
  m_MinimumChartSize: 4
  m_AutoUVMaxDistance: 0.5
  m_AutoUVMaxAngle: 89
  m_LightmapParameters: {fileID: 0}
  m_SortingLayerID: 0
  m_SortingOrder: 0
--- !u!64 &1387021774
MeshCollider:
  m_ObjectHideFlags: 0
  m_PrefabParentObject: {fileID: 6400002, guid: 3ae4cf39f6211ff418103507ab089ec0,
    type: 2}
  m_PrefabInternal: {fileID: 0}
  m_GameObject: {fileID: 1387021771}
  m_Material: {fileID: 0}
  m_IsTrigger: 0
  m_Enabled: 1
  serializedVersion: 2
  m_Convex: 0
  m_InflateMesh: 0
  m_SkinWidth: 0.01
  m_Mesh: {fileID: 10210, guid: 0000000000000000e000000000000000, type: 0}
--- !u!33 &1387021775
MeshFilter:
  m_ObjectHideFlags: 0
  m_PrefabParentObject: {fileID: 3300006, guid: 3ae4cf39f6211ff418103507ab089ec0,
    type: 2}
  m_PrefabInternal: {fileID: 0}
  m_GameObject: {fileID: 1387021771}
  m_Mesh: {fileID: 10210, guid: 0000000000000000e000000000000000, type: 0}
--- !u!4 &1390072292
Transform:
  m_ObjectHideFlags: 0
  m_PrefabParentObject: {fileID: 400000, guid: 9520b4773cd4be247b979318eae6c1da, type: 2}
  m_PrefabInternal: {fileID: 0}
  m_GameObject: {fileID: 2139209426}
  m_LocalRotation: {x: 0, y: 0, z: 0, w: 1}
  m_LocalPosition: {x: -4.83, y: 4.08, z: 0}
  m_LocalScale: {x: 1, y: 1, z: 0.2}
  m_Children: []
  m_Father: {fileID: 198816838}
  m_RootOrder: 0
  m_LocalEulerAnglesHint: {x: 0, y: 0, z: 0}
--- !u!1 &1604858588
GameObject:
  m_ObjectHideFlags: 0
  m_PrefabParentObject: {fileID: 0}
  m_PrefabInternal: {fileID: 0}
  serializedVersion: 5
  m_Component:
  - component: {fileID: 1604858589}
  m_Layer: 0
  m_Name: Landscape
  m_TagString: Untagged
  m_Icon: {fileID: 0}
  m_NavMeshLayer: 0
  m_StaticEditorFlags: 0
  m_IsActive: 1
--- !u!4 &1604858589
Transform:
  m_ObjectHideFlags: 0
  m_PrefabParentObject: {fileID: 0}
  m_PrefabInternal: {fileID: 0}
  m_GameObject: {fileID: 1604858588}
  m_LocalRotation: {x: 0, y: 0, z: 0, w: 1}
  m_LocalPosition: {x: 0, y: 0, z: 0}
  m_LocalScale: {x: 1, y: 1, z: 1}
  m_Children:
  - {fileID: 1319854646}
  - {fileID: 626373184}
  m_Father: {fileID: 0}
  m_RootOrder: 1
  m_LocalEulerAnglesHint: {x: 0, y: 0, z: 0}
--- !u!1 &1976591042
GameObject:
  m_ObjectHideFlags: 0
  m_PrefabParentObject: {fileID: 100000, guid: 3ae4cf39f6211ff418103507ab089ec0, type: 2}
  m_PrefabInternal: {fileID: 0}
  serializedVersion: 5
  m_Component:
  - component: {fileID: 1976591043}
  m_Layer: 0
  m_Name: Essentials
  m_TagString: Untagged
  m_Icon: {fileID: 0}
  m_NavMeshLayer: 0
  m_StaticEditorFlags: 0
  m_IsActive: 1
--- !u!4 &1976591043
Transform:
  m_ObjectHideFlags: 0
  m_PrefabParentObject: {fileID: 400000, guid: 3ae4cf39f6211ff418103507ab089ec0, type: 2}
  m_PrefabInternal: {fileID: 0}
  m_GameObject: {fileID: 1976591042}
  m_LocalRotation: {x: 0, y: 0, z: 0, w: 1}
  m_LocalPosition: {x: 0, y: 0, z: 0}
  m_LocalScale: {x: 1, y: 1, z: 1}
  m_Children:
  - {fileID: 1315510624}
  - {fileID: 259916155}
  - {fileID: 678869875}
  m_Father: {fileID: 0}
  m_RootOrder: 0
  m_LocalEulerAnglesHint: {x: 0, y: 0, z: 0}
--- !u!1 &2139209426
GameObject:
  m_ObjectHideFlags: 0
  m_PrefabParentObject: {fileID: 100000, guid: 9520b4773cd4be247b979318eae6c1da, type: 2}
  m_PrefabInternal: {fileID: 0}
  serializedVersion: 5
  m_Component:
  - component: {fileID: 1390072292}
  - component: {fileID: 2139209428}
  - component: {fileID: 2139209427}
  m_Layer: 0
  m_Name: ParticleSource
  m_TagString: Interactive
  m_Icon: {fileID: 0}
  m_NavMeshLayer: 0
  m_StaticEditorFlags: 0
  m_IsActive: 1
--- !u!212 &2139209427
SpriteRenderer:
  m_ObjectHideFlags: 0
  m_PrefabParentObject: {fileID: 21200000, guid: 9520b4773cd4be247b979318eae6c1da,
    type: 2}
  m_PrefabInternal: {fileID: 0}
  m_GameObject: {fileID: 2139209426}
  m_Enabled: 1
  m_CastShadows: 0
  m_ReceiveShadows: 0
  m_MotionVectors: 1
  m_LightProbeUsage: 0
  m_ReflectionProbeUsage: 0
  m_Materials:
  - {fileID: 10754, guid: 0000000000000000f000000000000000, type: 0}
  m_StaticBatchInfo:
    firstSubMesh: 0
    subMeshCount: 0
  m_StaticBatchRoot: {fileID: 0}
  m_ProbeAnchor: {fileID: 0}
  m_LightProbeVolumeOverride: {fileID: 0}
  m_ScaleInLightmap: 1
  m_PreserveUVs: 0
  m_IgnoreNormalsForChartDetection: 0
  m_ImportantGI: 0
  m_SelectedEditorRenderState: 0
  m_MinimumChartSize: 4
  m_AutoUVMaxDistance: 0.5
  m_AutoUVMaxAngle: 89
  m_LightmapParameters: {fileID: 0}
  m_SortingLayerID: 0
  m_SortingOrder: 0
  m_Sprite: {fileID: 21300000, guid: fc15374f23c1e28498602ffb98b28a40, type: 3}
  m_Color: {r: 1, g: 0.022058845, b: 0.022058845, a: 0.6862745}
  m_FlipX: 0
  m_FlipY: 0
--- !u!114 &2139209428
MonoBehaviour:
  m_ObjectHideFlags: 0
  m_PrefabParentObject: {fileID: 11400000, guid: 9520b4773cd4be247b979318eae6c1da,
    type: 2}
  m_PrefabInternal: {fileID: 0}
  m_GameObject: {fileID: 2139209426}
  m_Enabled: 1
  m_EditorHideFlags: 0
  m_Script: {fileID: 11500000, guid: 6b2773a1f0d2be74c80c953150cf4c4a, type: 3}
  m_Name: 
  m_EditorClassIdentifier: 
  particle: {fileID: 1050994674888434, guid: e4eb98041f1b21d4f8f80428cfc70d2f, type: 2}
  particleLifetime: 5
  particleForce: {x: 0, y: 0, z: 0}
  particlesState: 1
